[
  {"country":"UA","name":"Hurzuf","_id":707860,"coord":{"lon":34.283333,"lat":44.549999}},
  {"country":"RU","name":"Novinki","_id":519188,"coord":{"lon":37.666668,"lat":55.683334}},
  {"country":"NP","name":"Gorkhā","_id":1283378,"coord":{"lon":84.633331,"lat":28}},
  {"country":"IN","name":"State of Haryāna","_id":1270260,"coord":{"lon":76,"lat":29}},
  {"country":"UA","name":"Holubynka","_id":708546,"coord":{"lon":33.900002,"lat":44.599998}},
  {"country":"NP","name":"Bāgmatī Zone","_id":1283710,"coord":{"lon":85.416664,"lat":28}},
  {"country":"RU","name":"Mar’ina Roshcha","_id":529334,"coord":{"lon":37.611111,"lat":55.796391}},
  {"country":"IN","name":"Republic of India","_id":1269750,"coord":{"lon":77,"lat":20}},
  {"country":"NP","name":"Kathmandu","_id":1283240,"coord":{"lon":85.316666,"lat":27.716667}},
  {"country":"UA","name":"Laspi","_id":703363,"coord":{"lon":33.733334,"lat":44.416668}},
  {"country":"VE","name":"Merida","_id":3632308,"coord":{"lon":-71.144997,"lat":8.598333}},
  {"country":"RU","name":"Vinogradovo","_id":473537,"coord":{"lon":38.545555,"lat":55.423332}},
  {"country":"IQ","name":"Qarah Gawl al ‘Ulyā","_id":384848,"coord":{"lon":45.6325,"lat":35.353889}},
  {"country":"RU","name":"Cherkizovo","_id":569143,"coord":{"lon":37.728889,"lat":55.800835}},
  {"country":"UA","name":"Alupka","_id":713514,"coord":{"lon":34.049999,"lat":44.416668}},
  {"country":"DE","name":"Lichtenrade","_id":2878044,"coord":{"lon":13.40637,"lat":52.398441}},
  {"country":"RU","name":"Zavety Il’icha","_id":464176,"coord":{"lon":37.849998,"lat":56.049999}},
  {"country":"IL","name":"‘Azriqam","_id":295582,"coord":{"lon":34.700001,"lat":31.75}},
  {"country":"IN","name":"Ghūra","_id":1271231,"coord":{"lon":79.883331,"lat":24.766666}},
  {"country":"UA","name":"Tyuzler","_id":690856,"coord":{"lon":34.083332,"lat":44.466667}},
  {"country":"RU","name":"Zaponor’ye","_id":464737,"coord":{"lon":38.861942,"lat":55.639999}},
  {"country":"UA","name":"Il’ichëvka","_id":707716,"coord":{"lon":34.383331,"lat":44.666668}},
  {"country":"UA","name":"Partyzans’ke","_id":697959,"coord":{"lon":34.083332,"lat":44.833332}},
  {"country":"RU","name":"Yurevichi","_id":803611,"coord":{"lon":39.934444,"lat":43.600555}},
  {"country":"GE","name":"Gumist’a","_id":614371,"coord":{"lon":40.973888,"lat":43.026943}},
  {"country":"GE","name":"Ptitsefabrika","_id":874560,"coord":{"lon":40.290558,"lat":43.183613}},
  {"country":"GE","name":"Orekhovo","_id":874652,"coord":{"lon":40.146111,"lat":43.351391}},
  {"country":"NG","name":"Birim","_id":2347078,"coord":{"lon":9.997027,"lat":10.062094}},
  {"country":"RU","name":"Priiskovyy","_id":2051302,"coord":{"lon":132.822495,"lat":42.819168}},
  {"country":"RU","name":"Dzhaga","_id":563692,"coord":{"lon":42.650002,"lat":43.25}},
  {"country":"RU","name":"Tret’ya Rota","_id":481725,"coord":{"lon":39.681389,"lat":43.741943}},
  {"country":"GB","name":"Ruislip","_id":2638976,"coord":{"lon":-0.42341,"lat":51.573441}},
  {"country":"DE","name":"Karow","_id":2892705,"coord":{"lon":13.48117,"lat":52.609039}},
  {"country":"DE","name":"Gatow","_id":2922336,"coord":{"lon":13.18285,"lat":52.483238}},
  {"country":"ZA","name":"Mkuze","_id":975511,"coord":{"lon":32.038609,"lat":-27.616409}},
  {"country":"CN","name":"Lhasa","_id":1280737,"coord":{"lon":91.099998,"lat":29.65}},
  {"country":"TR","name":"İstanbul","_id":745042,"coord":{"lon":28.983311,"lat":41.03508}},
  {"country":"DO","name":"Mao","_id":3496831,"coord":{"lon":-71.078133,"lat":19.551861}},
  {"country":"RU","name":"Russian Federation","_id":2017370,"coord":{"lon":100,"lat":60}},
  {"country":"RU","name":"De-Friz","_id":2045761,"coord":{"lon":131.991394,"lat":43.27861}},
  {"country":"IN","name":"Rumbak","_id":1257986,"coord":{"lon":77.416664,"lat":34.049999}},
  {"country":"RU","name":"Vavibet","_id":476350,"coord":{"lon":34.916668,"lat":67.933334}},
  {"country":"PK","name":"Surtagān Chib","_id":1343000,"coord":{"lon":64.656113,"lat":26.474443}},
  {"country":"LV","name":"Rīgas Rajons","_id":456169,"coord":{"lon":24.333332,"lat":57}},
  {"country":"RU","name":"Verkhneye Shchekotikhino","_id":475279,"coord":{"lon":36.133331,"lat":53}},
  {"country":"UA","name":"Bucha","_id":711349,"coord":{"lon":30.366671,"lat":50.583328}},
  {"country":"PL","name":"Republic of Poland","_id":798544,"coord":{"lon":20,"lat":52}},
  {"country":"PL","name":"Kuchary","_id":3094325,"coord":{"lon":19.383329,"lat":52.150002}},
  {"country":"KN","name":"Brumaire","_id":3575514,"coord":{"lon":-62.73333,"lat":17.299999}},
  {"country":"JP","name":"Ishikawa-ken","_id":1861387,"coord":{"lon":136.770493,"lat":36.77145}},
  {"country":"JP","name":"Matoba","_id":1857578,"coord":{"lon":133.949997,"lat":34.25}},
  {"country":"MM","name":"Pya","_id":1299298,"coord":{"lon":95.599998,"lat":21.51667}},
  {"country":"BA","name":"Kalanac","_id":3256023,"coord":{"lon":18.78389,"lat":44.86861}},
  {"country":"DE","name":"Federal Republic of Germany","_id":2921044,"coord":{"lon":10.5,"lat":51.5}},
  {"country":"DE","name":"Land Nordrhein-Westfalen","_id":2861876,"coord":{"lon":7,"lat":51.5}},
  {"country":"RU","name":"Mutaykutan","_id":802899,"coord":{"lon":47.660641,"lat":42.818859}},
  {"country":"RU","name":"Nalchik","_id":523523,"coord":{"lon":43.618889,"lat":43.498058}}]